﻿orden;jinete;caballo
1;Lucía Moreira Blanco;CASTIZA DIC
2;Adai Hernández Folgueira;CHARRO
3;Paula Mendivil Rodríguez;PICASO
4;Macarena Jiménez de Cisneros Valle;FANCIULLA ROUGE
5;Irene Vidal Rivera;ASKARY (EX COKE)
6;Iria Rodríguez Suárez;CAPIOLA DE BELUCHI
7;María Honrubia Tortuero;GENTILE LADY
8;Olivia Tapias Fernández;PADINA L.P.
9;Carmen Castro Rabade;LUME DAS LEIRAS
