﻿;Orden;Caballo;Jinete;Class;Puntos;Tiempo
;4;ESTRELLA;Atenea Cascallana Adrio;6;8;15.21
;2;TACHETE;Lucía Patiño Rodríguez;4;4;43.32
;5;INDIO;Carlota González Rodríguez;4;4;53.35
;1;NALA;María Antelo García;1;0;32.32
;3;QUIJOTE;Santiago Vázquez Montes;1;0;32.33
;6;TUCAN;Ana Guimaraens Sotillo;1;0;53.35